C:\Users\kjelenak\sss\as3\as\src\main\java\showcase\config\SecurityConfig.java
C:\Users\kjelenak\sss\as3\as\src\main\java\showcase\web\MainController.java
C:\Users\kjelenak\sss\as3\as\src\main\java\showcase\Application.java
